[
  {
    "name": "Bugul Noz",
    "level": "12",
    "traits": [
      {
        "traitName": "FEY"
      }
    ],
    "rarity": "rare",
    "size": "Medium",
    "alignment": "Chaotic Neutral",
    "sourceDoc": "Pathfinder #153: Life's Long Shadow pg. 76",
    "perceptionMod": "+23",
    "perceptionText": "darkvision",
    "languagesList": "Common, Sylvan",
    "skills": [
      {
        "name": "Acrobatics",
        "mod": "+21"
      },
      {
        "name": "Athletics",
        "mod": "+19"
      },
      {
        "name": "Lore",
        "mod": "+22"
      },
      {
        "name": "Nature",
        "mod": "+25"
      },
      {
        "name": "Survival",
        "mod": "+25"
      }
    ],
    "attributes": {
      "str": "+3",
      "dex": "+5",
      "con": "+4",
      "int": "+4",
      "wis": "+5",
      "cha": "+7"
    },
    "interactionAbilities": [],
    "AC": "31",
    "saves": [
      {
        "name": "Fort",
        "mod": "+22"
      },
      {
        "name": "Ref",
        "mod": "+25"
      },
      {
        "name": "Will",
        "mod": "+23"
      }
    ],
    "immunities": "emotion",
    "weaknesses": "cold iron 18",
    "HP": "200",
    "defensiveAbilities": [
      {
        "name": "Frightful Presence",
        "traits": [
          "aura",
          "emotion",
          "fear",
          "mental"
        ],
        "actionCost": "passive",
        "actionText": "60 feet, DC 29. Animals take a –2 circumstance penalty to the Will save."
      },
      {
        "name": "Horrid Visage",
        "traits": [
          "visual"
        ],
        "actionCost": "passive",
        "actionText": "Creatures that see the bugul noz must succeed at a DC 31 Fortitude saving throw. On a failure, creatures are doomed 1 (or doomed 2 on a critical failure)."
      },
      {
        "name": "Mirror Vulnerability",
        "actionCost": "passive",
        "actionText": "Upon seeing its own reflection in a mirror or other reflective surface, the bugul noz must succeed at a DC 34 Will save or become confused and immobilized for 1d4 – 1 rounds (minimum 1 round). While confused and immobilized, the bugul noz cries and wallows in misery, making it immune to visual and auditory effects for the duration."
      }
    ],
    "speed": "25 feet",
    "otherSpeeds": {
      "forest jaunt": ""
    },
    "attackActions": [
      {
        "name": "claw",
        "modifier": "+23",
        "damageRolls": [
          "3d8+6 piercing"
        ],
        "actionCost": 1,
        "isRanged": false
      },
      {
        "name": "rock",
        "modifier": "+25",
        "damageRolls": [
          "2d8+6 bludgeoning"
        ],
        "actionCost": 1,
        "isRanged": true
      }
    ],
    "spellAbilities": [
      {
        "name": "Primal Innate Spells",
        "isFocus": false,
        "isRituals": false,
        "isSpontaneous": false,
        "numFocusPoints": 0,
        "tradition": "primal",
        "DC": "33",
        "spellCastType": "innate",
        "spellLevels": [
          {
            "spellLvl": 3,
            "level": "3rd",
            "numUses": 4,
            "spells": [
              {
                "spellName": "blindness",
                "detailText": "(x3)"
              },
              {
                "spellName": "wanderer's guide"
              }
            ]
          },
          {
            "spellLvl": 2,
            "level": "2nd",
            "numUses": 1,
            "spells": [
              {
                "spellName": "pass without trace"
              }
            ]
          },
          {
            "spellLvl": 0,
            "level": "Cantrips (3rd)",
            "numUses": 1,
            "spells": [
              {
                "spellName": "dancing lights"
              }
            ]
          }
        ]
      }
    ],
    "offensiveAbilities": [
      {
        "name": "Flail",
        "actionCost": 1,
        "actionText": "The bugul noz swings its limbs about wildly. It makes up to three claw Strikes, each against a different creature and each with a –2 circumstance penalty. Its multiple attack penalty doesn't increase until after it makes all the attacks."
      },
      {
        "name": "Forest Jaunt",
        "actionCost": "passive",
        "actionText": "The bugul noz ignores difficult terrain in forests."
      },
      {
        "name": "Haunting Wail",
        "traits": [
          "illusion",
          "vocal"
        ],
        "actionCost": 2,
        "actionText": "The bugul noz lets out a hair-raising keen. Other creatures within 30 feet must attempt a DC 31 Fortitude save. The bugul noz can't use this ability again for 1d4 rounds. <br>\n<b>Critical Success</b> The target is unaffected. <br>\n<b>Success</b> The target takes 2d10 sonic damage. <br>\n<b>Failure</b> The target takes 4d10 sonic damage and gains sonic weakness 10 for 1 minute. <br>\n<b>Critical Failure</b> As failure, and the target becomes fleeing for 1 round."
      }
    ]
  },
  {
    "name": "Cat Sith",
    "level": "6",
    "traits": [
      {
        "traitName": "FEY"
      }
    ],
    "rarity": "uncommon",
    "size": "Tiny",
    "alignment": "Chaotic Neutral",
    "sourceDoc": "Pathfinder #153: Life's Long Shadow pg. 77",
    "perceptionMod": "+14",
    "perceptionText": "low-light vision",
    "languagesList": "Sylvan; speak with animals",
    "skills": [
      {
        "name": "Acrobatics",
        "mod": "+15"
      },
      {
        "name": "Deception",
        "mod": "+15"
      },
      {
        "name": "Stealth",
        "mod": "+15"
      }
    ],
    "attributes": {
      "str": "+0",
      "dex": "+5",
      "con": "+2",
      "int": "+3",
      "wis": "+2",
      "cha": "+5"
    },
    "interactionAbilities": [],
    "AC": "23",
    "saves": [
      {
        "name": "Fort",
        "mod": "+14"
      },
      {
        "name": "Ref",
        "mod": "+17"
      },
      {
        "name": "Will",
        "mod": "+14"
      }
    ],
    "immunities": "misfortune effects",
    "weaknesses": "cold iron 5",
    "HP": "110",
    "defensiveAbilities": [
      {
        "name": "Ill Omen",
        "traits": [
          "aura",
          "curse",
          "misfortune",
          "occult"
        ],
        "actionCost": "passive",
        "actionText": "60 feet. Any creature within the area that can see the cat sith must succeed at a DC 21 Will save or become struck by an ill omen. On a failure, the creature becomes immune to fortune effects as long as it remains in the aura and for 1 minute thereafter. On a critical failure, the creature takes a –1 penalty to attack rolls, skill checks, and saving throws while within the ill omen aura and becomes immune to fortune effects for 1 day."
      }
    ],
    "speed": "35 feet",
    "attackActions": [
      {
        "name": "jaws",
        "modifier": "+12",
        "damageRolls": [
          "2d12+3 piercing"
        ],
        "actionCost": 1,
        "isRanged": false
      },
      {
        "name": "claw",
        "modifier": "+15",
        "damageRolls": [
          "2d6+5 slashing"
        ],
        "attackEffects": [
          "cat sith's mark"
        ],
        "actionCost": 1,
        "isRanged": false
      }
    ],
    "spellAbilities": [
      {
        "name": "Occult Innate Spells",
        "isFocus": false,
        "isRituals": false,
        "isSpontaneous": false,
        "numFocusPoints": 0,
        "tradition": "occult",
        "DC": "23",
        "spellCastType": "innate",
        "spellLevels": [
          {
            "spellLvl": 3,
            "level": "3rd",
            "numUses": 1,
            "spells": [
              {
                "spellName": "humanoid form",
                "detailText": "(at will)"
              }
            ]
          },
          {
            "spellLvl": 2,
            "level": "2nd",
            "numUses": 2,
            "spells": [
              {
                "spellName": "paranoia",
                "detailText": "(x2)"
              }
            ]
          }
        ]
      }
    ],
    "offensiveAbilities": [
      {
        "name": "Cat Sith's Mark",
        "traits": [
          "curse",
          "misfortune"
        ],
        "actionCost": "passive",
        "actionText": "A creature hit by a cat sith's claw must succeed at a DC 23 Will save or be cursed with misfortune. Whenever the cursed creature rolls a critical success on a skill check or saving throw, it gets a success instead. Each day, a cursed creature can attempt a DC 10 flat check to break the curse."
      },
      {
        "name": "Steal Soul",
        "traits": [
          "necromancy",
          "occult"
        ],
        "actionCost": 2,
        "actionText": "The cat sith touches a dying creature or a creature that died within the past 3 days. If the target is a dying creature, it must attempt a DC 25 Fortitude save; on a failure, its dying value increases by 1 (or 2 on a critical failure). If the target is dead, it receives no save and its soul is imprisoned in the cat sith's body, becoming freed only if the cat sith is slain. While the soul is imprisoned, the creature can't be brought back to life by any means short of a wish or miracle. The cat sith can hold only one soul at a time and can release a soul as a free action."
      }
    ]
  },
  {
    "name": "Counteflora",
    "level": "10",
    "traits": [
      {
        "traitName": "PLANT"
      }
    ],
    "size": "Large",
    "alignment": "Neutral",
    "rarity": "common",
    "sourceDoc": "Pathfinder #153: Life's Long Shadow pg. 78",
    "perceptionMod": "+18",
    "perceptionText": "tremorsense (imprecise) 60 feet",
    "skills": [
      {
        "name": "Athletics",
        "mod": "+23"
      },
      {
        "name": "Stealth",
        "mod": "+20",
        "skillDetails": "+24 in jungles and flower fields"
      }
    ],
    "attributes": {
      "str": "+5",
      "dex": "+6",
      "con": "+6",
      "int": "-4",
      "wis": "+2",
      "cha": "+0"
    },
    "interactionAbilities": [],
    "AC": "29",
    "ACDetails": "(31 with tightened bracts)",
    "saves": [
      {
        "name": "Fort",
        "mod": "+22"
      },
      {
        "name": "Ref",
        "mod": "+20"
      },
      {
        "name": "Will",
        "mod": "+14"
      }
    ],
    "immunities": "poison",
    "weaknesses": "cold 10, fire 10",
    "HP": "220",
    "defensiveAbilities": [
      {
        "name": "Frost Susceptibility",
        "actionCost": "passive",
        "actionText": "Whenever the counteflora takes cold damage, it takes a –10-foot circumstance penalty to Speed for 1 round."
      },
      {
        "name": "Tighten Bracts",
        "actionCost": 2,
        "actionText": "The counteflora stiffens the specialized leaves around its flower head, protecting its sensitive seedpods. While its bracts are tightened, a counteflora gains a +2 circumstance bonus to AC and can use its head Strike and Furious Swing abilities, but it cannot use its Black Seed Cloud ability and it loses its sense of sight (so it must rely on its imprecise tremorsense when targeting other creatures). The counteflora can't use its head Strike of Furious Swing ability unless its bracts are tightened. The counteflora can loosen its bracts as a free action (this action has the concentrate trait)."
      }
    ],
    "speed": "25 feet",
    "attackActions": [
      {
        "name": "vines",
        "modifier": "+21",
        "damageRolls": [
          "2d6+9 slashing"
        ],
        "actionCost": 1,
        "isRanged": false
      },
      {
        "name": "head",
        "modifier": "+23",
        "damageRolls": [
          "3d10+9 bludgeoning"
        ],
        "actionCost": 1,
        "isRanged": false
      }
    ],
    "offensiveAbilities": [
      {
        "name": "Black Seed Cloud",
        "actionCost": 2,
        "actionText": "The counteflora releases a cloud of black seedpods in a 15-foot-radius emanation. Non-counteflora creatures in the area must succeed at a Fortitude save or breathe in the toxic seeds. (Against plants and fungi, the seeds burrow into the creatures' flesh rather than infiltrate their lungs.)"
      },
      {
        "name": "Counteflora Toxin",
        "actionCost": "passive",
        "actionText": "(contact [for plants and fungi] or inhaled, poison) <br>\n<b>Saving Throw</b> DC 30 Fortitude (DC 32 for plants and fungi); <br>\n<b>Maximum Duration</b> 6 rounds; <br>\n<b>Stage 1</b> 4d6 poison damage and enfeebled 1 (1 round); <br>\n<b>Stage 2</b> 6d6 poison damage, enfeebled 1, and fascinated (1 round)"
      },
      {
        "name": "Furious Swing",
        "traits": [
          "attack"
        ],
        "actionCost": 3,
        "actionText": "<b>Requirements</b> The counteflora's bracts are tightened; <br>\n<b>Effect</b> The counteflora makes up to four headbutt Strikes (see Flower Headbutt), each against a different creature within reach."
      }
    ]
  },
  {
    "name": "Cu Sith",
    "level": "7",
    "traits": [
      {
        "traitName": "FEY"
      }
    ],
    "rarity": "uncommon",
    "size": "Large",
    "alignment": "Neutral",
    "sourceDoc": "Pathfinder #153: Life's Long Shadow pg. 79",
    "perceptionMod": "+16",
    "perceptionText": "low-light vision, scent (imprecise) 30 feet",
    "languagesList": "Sylvan; can't speak any language",
    "skills": [
      {
        "name": "Acrobatics",
        "mod": "+15"
      },
      {
        "name": "Athletics",
        "mod": "+17"
      },
      {
        "name": "Stealth",
        "mod": "+17"
      },
      {
        "name": "Survival",
        "mod": "+16"
      }
    ],
    "attributes": {
      "str": "+6",
      "dex": "+4",
      "con": "+4",
      "int": "-3",
      "wis": "+3",
      "cha": "+5"
    },
    "interactionAbilities": [],
    "AC": "24",
    "saves": [
      {
        "name": "Fort",
        "mod": "+15"
      },
      {
        "name": "Ref",
        "mod": "+17"
      },
      {
        "name": "Will",
        "mod": "+16"
      }
    ],
    "immunities": "fear",
    "weaknesses": "cold iron 5",
    "HP": "140",
    "speed": "40 feet",
    "attackActions": [
      {
        "name": "jaws",
        "modifier": "+17",
        "damageRolls": [
          "2d10+9 piercing"
        ],
        "attackEffects": [
          "Grab"
        ],
        "actionCost": 1,
        "isRanged": false
      }
    ],
    "offensiveAbilities": [
      {
        "name": "Dooming Bark",
        "traits": [
          "auditory",
          "concentrate",
          "fear",
          "mental",
          "necromancy",
          "primal"
        ],
        "actionCost": 2,
        "actionText": "Any creature within 200 feet of the cu sith that hears its  must attempt a DC 24 Will save. <br>\n<b>Critical Success</b> The creature is unaffected and immune to Dooming Bark for 24 hours. <br>\n<b>Success</b> The creature is frightened 1. <br>\n<b>Failure</b> The creature is frightened 2. <br>\n<b>Critical Failure</b> The creature is frightened 3 and fleeing.<br>If a creature is already frightened when it fails a save against Dooming Bark, its frightened value increases by 1 and it becomes doomed 1. A creature in an area that the cu sith can't easily reach—such as a hidden burrow or enclosed building—increases the degree of success of its saving throw against Dooming Bark by one step."
      },
      {
        "name": "Worry Prey",
        "traits": [
          "attack"
        ],
        "actionCost": 1,
        "actionText": "<b>Requirements</b> The cu sith has a Large or smaller creature grabbed in its jaws; <br>\n<b>Effect</b> The cu sith viciously shakes its prey. The cu sith makes a jaws Strike against the grabbed creature with a +2 circumstance bonus to the attack roll. If the cu sith hits, it deals jaws damage, maintains its Grab, and attempts an Athletics check to Disarm its target of anything it is holding. On a miss, the cu sith releases the creature."
      }
    ]
  },
  {
    "name": "Herecite Of Zevgavizeb",
    "level": "10",
    "traits": [
      {
        "traitName": "UNDEAD"
      }
    ],
    "rarity": "uncommon",
    "size": "Medium",
    "alignment": "Chaotic Evil",
    "sourceDoc": "Pathfinder #153: Life's Long Shadow pg. 80",
    "perceptionMod": "+20",
    "perceptionText": "darkvision, detect alignment (good only)",
    "languagesList": "Common, Draconic, Infernal",
    "skills": [
      {
        "name": "Athletics",
        "mod": "+20"
      },
      {
        "name": "Intimidation",
        "mod": "+23"
      },
      {
        "name": "Religion",
        "mod": "+22"
      },
      {
        "name": "Lore",
        "mod": "+19"
      }
    ],
    "attributes": {
      "str": "+6",
      "dex": "+4",
      "con": "+5",
      "int": "+1",
      "wis": "+4",
      "cha": "+7"
    },
    "items": [
      {
        "name": "+1 striking spiked gauntlet"
      }
    ],
    "interactionAbilities": [
      {
        "name": "Cabal",
        "actionCost": "passive",
        "actionText": "Multiple herecites can form a cabal to gain increased magical abilities and defenses. A cabal consists of two to five herecites. The ritual to form a cabal (or to welcome new herecites into an existing cabal) requires 24 hours of worship, prayer, and vile sacrifice, after which point the herecites become magically bound to one another. All herecites in a cabal gain the cleric domain spells granted by each individual herecite's deity, and each herecite's focus pool increases to 3 Focus Points. As long as the cabal exists, herecites in the cabal gain a +2 status bonus to Perception checks and fast healing 10. These benefits persist as long as the cabal consists of two or more herecites that remain within 1 mile of one another."
      },
      {
        "name": "Herecite Deity",
        "actionCost": "passive",
        "actionText": "A herecite is associated with one evil god and is always of the same alignment as that god. Whenever it wields its deity's favored weapon, that weapon gains the unholy rune. The herecite's creators select two domains from their deity; the herecite can cast the domain spells and the advanced domain spells from those domains as cleric focus spells. The herecite can cast the deity's other granted cleric spells as divine innate spells. Most herecites have 2 Focus Points in their focus pool. The herecite presented here is a herecite of Zevgavizeb."
      }
    ],
    "AC": "30",
    "saves": [
      {
        "name": "Fort",
        "mod": "+19"
      },
      {
        "name": "Ref",
        "mod": "+20"
      },
      {
        "name": "Will",
        "mod": "+22"
      }
    ],
    "weaknesses": "good 10",
    "HP": "200",
    "HPDetails": "(negative healing)",
    "defensiveAbilities": [
      {
        "name": "Perverse Prayer",
        "traits": [
          "auditory",
          "divine",
          "evil"
        ],
        "actionCost": "reaction",
        "actionText": "<b>Trigger</b> A creature within 30 feet uses the Sustain a Spell action to sustain a divine spell or the Cast a Spell action to cast a divine spell with a verbal component; <br>\n<b>Effect</b> The herecite warps the caster's prayers into a sacrilegious echo praising the evils of its own deity. The triggering caster must succeed at a DC 29 Will saving throw or their spell is disrupted and their action wasted."
      }
    ],
    "speed": "30 feet",
    "attackActions": [
      {
        "name": "unholy spiked gauntlet",
        "modifier": "+22",
        "damageRolls": [
          "2d4+10 piercing",
          "1d6 evil"
        ],
        "actionCost": 1,
        "isRanged": false
      }
    ],
    "spellAbilities": [
      {
        "name": "Divine Innate Spells",
        "isFocus": false,
        "isRituals": false,
        "isSpontaneous": false,
        "numFocusPoints": 0,
        "tradition": "divine",
        "DC": "28",
        "spellCastType": "innate",
        "spellLevels": [
          {
            "spellLvl": 5,
            "level": "5th",
            "numUses": 1,
            "spells": [
              {
                "spellName": "ravening maw"
              }
            ]
          },
          {
            "spellLvl": 3,
            "level": "3rd",
            "numUses": 3,
            "spells": [
              {
                "spellName": "crisis of faith"
              },
              {
                "spellName": "harm",
                "detailText": "(at will)"
              },
              {
                "spellName": "meld into stone"
              }
            ]
          },
          {
            "spellLvl": 2,
            "level": "2nd",
            "numUses": 3,
            "spells": [
              {
                "spellName": "darkness",
                "detailText": "(x3)"
              }
            ]
          },
          {
            "spellLvl": 1,
            "level": "1st",
            "numUses": 1,
            "spells": [
              {
                "spellName": "ray of enfeeblement"
              }
            ]
          },
          {
            "spellLvl": 5,
            "level": "Constant (5th)",
            "numUses": 1,
            "spells": [
              {
                "spellName": "detect alignment",
                "detailText": "(good only)"
              }
            ]
          }
        ]
      },
      {
        "name": "Cleric Focus Spells",
        "isFocus": true,
        "isRituals": false,
        "isSpontaneous": false,
        "numFocusPoints": 2,
        "DC": "28",
        "spellCastType": "focus",
        "spellLevels": [
          {
            "spellLvl": 4,
            "level": "4th",
            "numUses": 2,
            "spells": [
              {
                "spellName": "enduring might"
              },
              {
                "spellName": "nature's bounty"
              }
            ]
          },
          {
            "spellLvl": 1,
            "level": "1st",
            "numUses": 2,
            "spells": [
              {
                "spellName": "athletic rush"
              },
              {
                "spellName": "vibrant thorns"
              }
            ]
          }
        ]
      },
      {
        "name": "Rituals DC28",
        "spellLevels": [
          {
            "spells": [
              {
                "spellName": "consecrate",
                "nethysUrl": "https://2e.aonprd.com/Rituals.aspx?ID=8"
              }
            ],
            "level": "2nd"
          }
        ]
      }
    ],
    "offensiveAbilities": [
      {
        "name": "Assault the Soul",
        "traits": [
          "concentrate",
          "divine",
          "evil",
          "necromancy"
        ],
        "actionCost": 3,
        "actionText": "<b>Requirements</b> The herecite is in a cabal of three or more members, two of which are within 60 feet and have used Cabal Communion within the last round; <br>\n<b>Effect</b> The herecite casts bind soul, spirit blast, or spiritual epidemic (DC 31). Once a herecite has used this ability (whether or not it was successful), the cabal must wait 24 hours before one of its members can use  again."
      },
      {
        "name": "Cabal Communion",
        "traits": [
          "auditory",
          "concentrate"
        ],
        "actionCost": 2,
        "actionText": "With murmurs and chants, the herecite casts its consciousness toward the other members of its cabal. For 1 round, it senses what other members are sensing, knows their thoughts, and knows their exact location."
      },
      {
        "name": "Curse of Defiled Idols",
        "traits": [
          "curse",
          "divine",
          "evil"
        ],
        "actionCost": 2,
        "actionText": "Recalling the cruelty of the foul ritual that birthed it, the herecite curses an enemy with a fragment of its blasphemy. The herecite targets one creature within 30 feet, which must attempt a DC 29 Will save. On a failure, the creature is cursed. As long as the creature is cursed, any art object, symbol, or implement of religious significance in the creature's possession—such as a divine spellcasting focus, holy text, fetish, or rendering of a deity—becomes physically corrupted in a way that debases the deity's tenets (a depiction of Shelyn's songbird, for example, might lose its beautiful plumage to reveal a hideous skeletal form beneath). While these items continue to function normally, the cursed creature is stupefied 2 as long as it possesses an object corrupted in this fashion. The creature can cast off its corrupted objects to remove the stupefied condition, but any new religious objects it takes into its possession become similarly corrupted. The curse can be lifted by a remove curse spell or by an atone ritual. After a creature is targeted with this ability, regardless of whether it was affected, it becomes immune to herecites'  for 1 day."
      }
    ]
  },
  {
    "name": "Shoony Hierarch",
    "level": "4",
    "traits": [
      {
        "traitName": "HUMANOID"
      },
      {
        "traitName": "SHOONY"
      }
    ],
    "rarity": "rare",
    "size": "Small",
    "alignment": "Neutral Good",
    "sourceDoc": "Pathfinder #153: Life's Long Shadow pg. 83",
    "perceptionMod": "+12",
    "perceptionText": "low-light vision",
    "languagesList": "Common, Shoony",
    "skills": [
      {
        "name": "Crafting",
        "mod": "+11"
      },
      {
        "name": "Diplomacy",
        "mod": "+12"
      },
      {
        "name": "Lore",
        "mod": "+13"
      },
      {
        "name": "Society",
        "mod": "+13"
      },
      {
        "name": "Survival",
        "mod": "+11"
      }
    ],
    "attributes": {
      "str": "+0",
      "dex": "+2",
      "con": "-1",
      "int": "+3",
      "wis": "+3",
      "cha": "+4"
    },
    "items": [
      {
        "name": "longbow (20 arrows and 5 signal arrows)"
      },
      {
        "name": "staff"
      }
    ],
    "interactionAbilities": [],
    "AC": "19",
    "saves": [
      {
        "name": "Fort",
        "mod": "+9"
      },
      {
        "name": "Ref",
        "mod": "+10"
      },
      {
        "name": "Will",
        "mod": "+13"
      },
      {
        "name": "all",
        "saveDetail": "A shoony's small, blunt snout and labyrinthine sinus system make them resistant to phenomena that assail the nose. When they rolls a saving throw against inhaled threats (such as inhaled poisons) and olfactory effects (such as xulgath stench), they get the outcome one degree of success better than the result of their roll."
      }
    ],
    "HP": "60",
    "speed": "25 feet",
    "otherSpeeds": {
      "paddler": ""
    },
    "attackActions": [
      {
        "name": "staff",
        "modifier": "+9",
        "damageRolls": [
          "1d4 bludgeoning"
        ],
        "actionCost": 1,
        "isRanged": false
      },
      {
        "name": "longbow",
        "modifier": "+11",
        "damageRolls": [
          "1d8+2 piercing"
        ],
        "actionCost": 1,
        "isRanged": true
      }
    ],
    "offensiveAbilities": [
      {
        "name": "Signal Arrow",
        "actionCost": 2,
        "actionText": "The shoony hierarch sparks and launches an alchemically treated arrow that creates a bright light high in the sky. A signal arrow cannot be used to deal damage. Hierarchs carry a number of different arrows that signal different things; a red signal arrow might mean retreat, whereas a green arrow might be a call to gather in the village commons."
      }
    ]
  },
  {
    "name": "Shoony Militia Member",
    "level": "2",
    "traits": [
      {
        "traitName": "HUMANOID"
      },
      {
        "traitName": "SHOONY"
      }
    ],
    "rarity": "rare",
    "size": "Small",
    "alignment": "Lawful Good",
    "sourceDoc": "Pathfinder #153: Life's Long Shadow pg. 82",
    "perceptionMod": "+8",
    "perceptionText": "low-light vision, scent (imprecise) 30 feet",
    "languagesList": "Common, Shoony",
    "skills": [
      {
        "name": "Acrobatics",
        "mod": "+8",
        "skillDetails": "+9 to Tumble Through spaces of Medium or larger creatures"
      },
      {
        "name": "Athletics",
        "mod": "+10"
      },
      {
        "name": "Crafting",
        "mod": "+4"
      },
      {
        "name": "Society",
        "mod": "+6"
      },
      {
        "name": "Survival",
        "mod": "+6"
      }
    ],
    "attributes": {
      "str": "+4",
      "dex": "+2",
      "con": "+1",
      "int": "+0",
      "wis": "+2",
      "cha": "+1"
    },
    "items": [
      {
        "name": "hide armor"
      },
      {
        "name": "javelin (2)"
      },
      {
        "name": "longsword"
      }
    ],
    "interactionAbilities": [],
    "AC": "17",
    "saves": [
      {
        "name": "Fort",
        "mod": "+9"
      },
      {
        "name": "Ref",
        "mod": "+6"
      },
      {
        "name": "Will",
        "mod": "+8"
      },
      {
        "name": "all",
        "saveDetail": "A shoony's small, blunt snout and labyrinthine sinus system make them resistant to phenomena that assail the nose. When they rolls a saving throw against inhaled threats (such as inhaled poisons) and olfactory effects (such as xulgath stench), they get the outcome one degree of success better than the result of their roll."
      }
    ],
    "HP": "40",
    "speed": "20 feet",
    "attackActions": [
      {
        "name": "longsword",
        "modifier": "+10",
        "damageRolls": [
          "1d8+4 slashing"
        ],
        "actionCost": 1,
        "isRanged": false
      },
      {
        "name": "javelin",
        "modifier": "+10",
        "damageRolls": [
          "1d6+4 piercing"
        ],
        "actionCost": 1,
        "isRanged": true
      }
    ]
  },
  {
    "name": "Shoony Tiller",
    "level": "0",
    "traits": [
      {
        "traitName": "HUMANOID"
      },
      {
        "traitName": "SHOONY"
      }
    ],
    "rarity": "rare",
    "size": "Small",
    "alignment": "Neutral Good",
    "sourceDoc": "Pathfinder #153: Life's Long Shadow pg. 82",
    "perceptionMod": "+6",
    "perceptionText": "low-light vision",
    "languagesList": "Common, Shoony",
    "skills": [
      {
        "name": "Athletics",
        "mod": "+7"
      },
      {
        "name": "Crafting",
        "mod": "+1"
      },
      {
        "name": "Deception",
        "mod": "+4"
      },
      {
        "name": "Lore",
        "mod": "+3"
      },
      {
        "name": "Society",
        "mod": "+1"
      },
      {
        "name": "Survival",
        "mod": "+4"
      }
    ],
    "attributes": {
      "str": "+3",
      "dex": "+1",
      "con": "+1",
      "int": "-1",
      "wis": "+2",
      "cha": "+2"
    },
    "items": [
      {
        "name": "hoe"
      }
    ],
    "interactionAbilities": [],
    "AC": "15",
    "saves": [
      {
        "name": "Fort",
        "mod": "+5"
      },
      {
        "name": "Ref",
        "mod": "+3"
      },
      {
        "name": "Will",
        "mod": "+6"
      },
      {
        "name": "all",
        "saveDetail": "A shoony's small, blunt snout and labyrinthine sinus system make them resistant to phenomena that assail the nose. When they rolls a saving throw against inhaled threats (such as inhaled poisons) and olfactory effects (such as xulgath stench), they get the outcome one degree of success better than the result of their roll."
      }
    ],
    "HP": "16",
    "speed": "25 feet",
    "attackActions": [
      {
        "name": "hoe",
        "modifier": "+6",
        "damageRolls": [
          "1d4+3 bludgeoning"
        ],
        "actionCost": 1,
        "isRanged": false
      },
      {
        "name": "dirt clod",
        "modifier": "+4",
        "damageRolls": [
          "1 nonlethal"
        ],
        "actionCost": 1,
        "isRanged": true
      }
    ],
    "offensiveAbilities": [
      {
        "name": "Dig Quickly",
        "traits": [
          "manipulate"
        ],
        "actionCost": 2,
        "actionText": "<b>Requirements</b> You are standing on dirt, sand, snow, or similar particulate material. <br>\n<b>Effect</b> Your hands work as effectively as shovels when you need to dig a quick hole. You dig a shallow pit in the square you currently occupy, turning the square into difficult terrain (including for you). In addition, you also kick up a cloud of grit in a direction of your choice. The cloud extinguishes small, unattended, non-magical fires and helps smother the flames on burning creatures located within the cone; creatures in this cone that are taking persistent fire damage can immediately attempt an additional flat DC 15 check to end the persistent damage."
      }
    ]
  },
  {
    "name": "Yaganty",
    "level": "10",
    "traits": [
      {
        "traitName": "FEY"
      }
    ],
    "rarity": "uncommon",
    "size": "Large",
    "alignment": "Lawful Neutral",
    "sourceDoc": "Pathfinder #153: Life's Long Shadow pg. 85",
    "perceptionMod": "+20",
    "perceptionText": "greater darkvision",
    "languagesList": "Common, Infernal, Sylvan",
    "skills": [
      {
        "name": "Deception",
        "mod": "+23"
      },
      {
        "name": "Nature",
        "mod": "+21"
      },
      {
        "name": "Occultism",
        "mod": "+18"
      },
      {
        "name": "Stealth",
        "mod": "+23"
      }
    ],
    "attributes": {
      "str": "+6",
      "dex": "+5",
      "con": "+5",
      "int": "+2",
      "wis": "+5",
      "cha": "+7"
    },
    "interactionAbilities": [],
    "AC": "29",
    "saves": [
      {
        "name": "Fort",
        "mod": "+23"
      },
      {
        "name": "Ref",
        "mod": "+17"
      },
      {
        "name": "Will",
        "mod": "+21"
      }
    ],
    "resistances": "fire 10",
    "weaknesses": "cold iron 10",
    "HP": "200",
    "defensiveAbilities": [
      {
        "name": "Light in the Darkness",
        "traits": [
          "aura",
          "light",
          "mental",
          "primal",
          "visual"
        ],
        "actionCost": "passive",
        "actionText": "60 feet. The flames from a yaganty's fingers shed bright light in a 10-foot radius and are visible even in areas affected by magical darkness, but they do not shed dim light beyond that radius. Any creature within 60 feet in an area of darkness or dim light that sees the yaganty's candle fingers must succeed at a DC 27 Will save or become fascinated by the yaganty for 1 minute or until the yaganty uses a hostile action against the creature, whichever comes first."
      },
      {
        "name": "Vulnerability to Extinguishing",
        "actionCost": 1,
        "actionText": "A yaganty who is doused with water or otherwise has their candle fingers extinguished takes 3d6 persistent mental damage, becomes quickened 1, and screams in agony until they reignite their candles (typically by casting produce flame and lighting their fingers with an Interact action)."
      },
      {
        "name": "Attack of Opportunity",
        "actionCost": "reaction",
        "actionText": ""
      }
    ],
    "speed": "20 feet",
    "attackActions": [
      {
        "name": "candle fingers",
        "modifier": "+20",
        "damageRolls": [
          "3d10+5 fire"
        ],
        "actionCost": 1,
        "isRanged": false
      },
      {
        "name": "claw",
        "modifier": "+22",
        "damageRolls": [
          "2d8+9 slashing"
        ],
        "attackEffects": [
          "Grab"
        ],
        "actionCost": 1,
        "isRanged": false
      }
    ],
    "spellAbilities": [
      {
        "name": "Occult Innate Spells",
        "isFocus": false,
        "isRituals": false,
        "isSpontaneous": false,
        "numFocusPoints": 0,
        "tradition": "occult",
        "DC": "29",
        "attackMod": "+23",
        "spellCastType": "innate",
        "spellLevels": [
          {
            "spellLvl": 5,
            "level": "5th",
            "numUses": 1,
            "spells": [
              {
                "spellName": "dimension door"
              }
            ]
          },
          {
            "spellLvl": 4,
            "level": "4th",
            "numUses": 1,
            "spells": [
              {
                "spellName": "darkness"
              }
            ]
          },
          {
            "spellLvl": 3,
            "level": "3rd",
            "numUses": 2,
            "spells": [
              {
                "spellName": "burning hands",
                "detailText": "(x2)"
              }
            ]
          },
          {
            "spellLvl": 0,
            "level": "Cantrips (5th)",
            "numUses": 1,
            "spells": [
              {
                "spellName": "produce flame"
              }
            ]
          }
        ]
      }
    ],
    "offensiveAbilities": [
      {
        "name": "Fling Wax",
        "traits": [
          "fire"
        ],
        "actionCost": 2,
        "actionText": "The yaganty whips a stream of scalding wax in a 30-foot line. Each glob deals 1d6 persistent fire damage. An affected creature or adjacent ally can remove one glob of wax by spending an Interact action to scrape it off. The yaganty can't use  again for 1d4 rounds. Creatures in the area must attempt a DC 27 Reflex save. <br>\n<b>Critical Success</b> The creature is unaffected. <br>\n<b>Success</b> The creature is splattered with 1d2+1 globs of wax. <br>\n<b>Failure</b> The creature is splattered with 1d4+2 globs of wax. <br>\n<b>Critical Failure</b> As failure, and the creature is blinded until it removes the globs of wax."
      }
    ]
  }
]